[
  {
    "id": "8d9b40eb-338c-4a42-9c57-be94044095f9",
    "firstName": "Justus",
    "lastName": "Howell",
    "dateOfBirth": "2018-06-20T16:27:05.395Z"
  },
  {
    "id": "f098cf8f-da8e-4d5e-b05c-528005e9eb2c",
    "firstName": "Terrance",
    "lastName": "Pfannerstill",
    "dateOfBirth": "2017-11-17T08:24:40.591Z"
  },
  {
    "id": "4600bc10-d321-4097-a5bf-da7ac3e0ae9c",
    "firstName": "Camila",
    "lastName": "Kiehn",
    "dateOfBirth": "2018-06-18T02:49:46.020Z"
  },
  {
    "id": "f28359ea-e397-49cd-82a1-05e1e767407e",
    "firstName": "General",
    "lastName": "Trantow",
    "dateOfBirth": "2017-10-30T21:29:54.997Z"
  },
  {
    "id": "05ea3aaa-fb48-4f60-b66f-695c25b26c9f",
    "firstName": "Lelia",
    "lastName": "Veum",
    "dateOfBirth": "2018-01-27T14:27:21.335Z"
  },
  {
    "id": "qwqrete223535",
    "firstName": "Nhat",
    "lastName": "Nguyen",
    "dateOfBirth": "1997-04-28"
  }
]